b19ff6a0ba1318a00ce875a0411714b4  en/bots.md
cb707af05d23150330a1e836dd73c5b2  en/connection_guide.md
a9502b221890ea3346597f7b80f5de4d  en/faq.md
383b905114b125d7bfd87a7dacdc8b56  en/fokabot.md
96a9ef2265cef92f7a7014f3303b74b9  en/install_certificate_manually.md
1f7dd61cbdf2c6d8249481deb2a8d847  en/irc.md
2a77df23ecc8f9be75819e98afadcef1  en/linux.md
9710018e775ce8760c9d7f98bbacaae6  en/rules.md
f89888117086f84db0fa6855bbae606c  en/secure_contact.md
